{
  "type": "service_account",
  "project_id": "billel-internship",
  "private_key_id": "ee2973cfc63be7c2bf184b32157181bcbb8b89e7",
  "private_key": "-----BEGIN PRIVATE KEY-----\nMIIEvQIBADANBgkqhkiG9w0BAQEFAASCBKcwggSjAgEAAoIBAQDBldjjf7nMNqe3\nl0JtDPBD/jyQUaPuOCIugENYm2tCb1KMtaKn/heTccfj4Q8Men5stiuC1j8IkBQx\nF4QqpbvHY8DYlnZWkbFK+CBjxsJz/tx/8if9UVkmzmv2kPlEc71Wv9rh3GoYakOJ\noi93/M3qcJ6t1kylJJKvLXEWJZFk2O4KR4PxckqfMHUTcdbJgd0/HeL4raweP0zA\nS4v1d7e8dhBAiTkAz7YhMUaqbBzYfprcrMKhYNXGmTyx/GfxQe9MaWciUSaKTs5W\nxYSdaBff8fst1dLlyQ//h0G8V8HM95JAOuQMiopgA72ZvcA3RgrT0cZwOVjNSwJG\nhVJMci5pAgMBAAECggEAGrNPly9MgeNu9hZNket1LzefhFtSVD7XThkgUNYc8OyY\nUvKRhQC5oTtSEfb+g57Ylad5sGHbD1QKCOxgrR4vXHTAik8UcuPE851uIDzvoJ6g\nLKCKjfi8pmrVvswnqV6aWJ79MmZbltL/Tjo5uF+8yg9u/3SdnTCCb9mBbcfQOjup\nDcXMQ/xHizREOiON6B1Zo4oL/G5XcaCDUtiNFcz9RZBfpESYMMDEQraitXU2DMPA\nezyyLqKuCuolGtoEuHAK5u/XfBylCEnCJln120wetMlPf//wXneSQQ+2pLZlQKn1\nWdGNYKu3CP6W3ziBGUMfHgn4L4+nenCCS/+qxbMalQKBgQDgwNQFgrLG6cI6F4i7\n9W7U4GqofN1e+o3IvHimpDx1kC7I8WURprTkZkMkYdehaSf/OXeMJhQNp1e9kAzC\n3YmB3V4CA2OoeDA9UPyAnKdWms1+35ANNsGPdjVJhZtwkV2cLkbAmFJ7f2Au+oFu\nFs0v0fwDWqkIQx7naRZhTZ24fQKBgQDcf7mvrLhZNN+CTk828kHXC4maYQNGhTJQ\nSJ5wtcaYbhBYIoWg43SW0r51NF5C8xJY+GnXrM0/XV2MRgjkEjRzCrmQWqGzmWhH\n0vP+bGpngnFVWT3Wxy6CBs3YvLiJlvyx1H/+8SWmmAjfOMC0ffeop7OAYzeZIXaM\nAcNYIUAdXQKBgCs1Bs2UZbgVwlAWrCOuOENWbUq8znXu5wj7KpqmojTbphLdTVfK\nW6Y4/plk8eZG5/iJ3LCltV82l4iKw9lGa6P6oZLzgdomWOfAxPoYo5bjpbPJWNEh\ngK6KxA3BULOgToWy48ksv1ackyoU4IMAgSu7S559dFdxR+Sm8DV+jV6lAoGBAJck\nqiikUV08o/TTLvNwDfeVPgZnd3JQfRORI6IIyA/Wajevuj91ioaUAN+gPPjRW4NH\nDG49UhecLTKpExEa9X7iHB66MVtFzbhl/sAomqtHO96QJJZjxBp3BYUKn8gYijBv\nhClCLVfLoVE5usY+DpQ6GA3qdMLvsC36S2fOqv81AoGAUuhcoyGrBq4QAoRoe9je\nPRLTVRHb/6J0I2VtaZXSVSqqK1Fd0hSC1BW9Sm87V52ZKaShfrgb28OgcNe9gQC9\nssQihReYP/qnAy8McdRIgKc/y1MryicyU+WXXgNXhseqTibsA7dq6UF9tk+1GHs0\n9QJXdAc4OX0LL6Pc6YLEqOw=\n-----END PRIVATE KEY-----\n",
  "client_email": "spark-gcs@billel-internship.iam.gserviceaccount.com",
  "client_id": "103301761975800879305",
  "auth_uri": "https://accounts.google.com/o/oauth2/auth",
  "token_uri": "https://oauth2.googleapis.com/token",
  "auth_provider_x509_cert_url": "https://www.googleapis.com/oauth2/v1/certs",
  "client_x509_cert_url": "https://www.googleapis.com/robot/v1/metadata/x509/spark-gcs%40billel-internship.iam.gserviceaccount.com"
}
