#
# There is insufficient memory for the Java Runtime Environment to continue.
# Native memory allocation (mmap) failed to map 716177408 bytes for committing reserved memory.
# Possible reasons:
#   The system is out of physical RAM or swap space
#   The process is running with CompressedOops enabled, and the Java Heap may be blocking the growth of the native heap
# Possible solutions:
#   Reduce memory load on the system
#   Increase physical memory or swap space
#   Check if swap backing store is full
#   Decrease Java heap size (-Xmx/-Xms)
#   Decrease number of Java threads
#   Decrease Java thread stack sizes (-Xss)
#   Set larger code cache with -XX:ReservedCodeCacheSize=
# This output file may be truncated or incomplete.
#
#  Out of Memory Error (os_linux.cpp:2756), pid=31652, tid=0x00007f308799b700
#
# JRE version:  (8.0_212-b03) (build )
# Java VM: OpenJDK 64-Bit Server VM (25.212-b03 mixed mode linux-amd64 compressed oops)
# Failed to write core dump. Core dumps have been disabled. To enable core dumping, try "ulimit -c unlimited" before starting Java again
#

---------------  T H R E A D  ---------------

Current thread (0x00007f308000b000):  JavaThread "Unknown thread" [_thread_in_vm, id=31653, stack(0x00007f308789c000,0x00007f308799c000)]

Stack: [0x00007f308789c000,0x00007f308799c000],  sp=0x00007f308799a5d0,  free space=1017k
Native frames: (J=compiled Java code, j=interpreted, Vv=VM code, C=native code)
V  [libjvm.so+0xab46a2]
V  [libjvm.so+0x4db6b7]
V  [libjvm.so+0x8ef7b0]
V  [libjvm.so+0x8e68ce]
V  [libjvm.so+0x96a406]
V  [libjvm.so+0x95a71c]
V  [libjvm.so+0x2b418e]
V  [libjvm.so+0x917371]
V  [libjvm.so+0xa76baa]
V  [libjvm.so+0xa76ea5]
V  [libjvm.so+0x6283df]
V  [libjvm.so+0xa5a8e3]
V  [libjvm.so+0x6aa8c1]  JNI_CreateJavaVM+0x61
C  [libjli.so+0x2c64]
C  [libjli.so+0x761d]
C  [libpthread.so.0+0x76db]  start_thread+0xdb


---------------  P R O C E S S  ---------------

Java Threads: ( => current thread )

Other Threads:

=>0x00007f308000b000 (exited) JavaThread "Unknown thread" [_thread_in_vm, id=31653, stack(0x00007f308789c000,0x00007f308799c000)]

VM state:not at safepoint (not fully initialized)

VM Mutex/Monitor currently owned by a thread: None

heap address: 0x00000000c0000000, size: 1024 MB, Compressed Oops mode: Non-zero based:0x00000000bffff000
Narrow klass base: 0x0000000000000000, Narrow klass shift: 0

GC Heap History (0 events):
No events

Deoptimization events (0 events):
No events

Classes redefined (0 events):
No events

Internal exceptions (0 events):
No events

Events (0 events):
No events


Dynamic libraries:
eab00000-100000000 rw-p 00000000 00:00 0 
556a5766e000-556a5766f000 r-xp 00000000 08:02 8146912                    /usr/lib/jvm/java-8-openjdk-amd64/jre/bin/java
556a5786e000-556a5786f000 r--p 00000000 08:02 8146912                    /usr/lib/jvm/java-8-openjdk-amd64/jre/bin/java
556a5786f000-556a57870000 rw-p 00001000 08:02 8146912                    /usr/lib/jvm/java-8-openjdk-amd64/jre/bin/java
556a58123000-556a58144000 rw-p 00000000 00:00 0                          [heap]
7f3077bff000-7f3077d54000 ---p 00000000 00:00 0 
7f3077d54000-7f3077e0a000 rw-p 00000000 00:00 0 
7f3077e0a000-7f3078000000 ---p 00000000 00:00 0 
7f3078000000-7f3078270000 rwxp 00000000 00:00 0 
7f3078270000-7f3080000000 ---p 00000000 00:00 0 
7f3080000000-7f3080033000 rw-p 00000000 00:00 0 
7f3080033000-7f3084000000 ---p 00000000 00:00 0 
7f30841fb000-7f3084203000 r-xp 00000000 08:02 8146958                    /usr/lib/jvm/java-8-openjdk-amd64/jre/lib/amd64/libzip.so
7f3084203000-7f3084402000 ---p 00008000 08:02 8146958                    /usr/lib/jvm/java-8-openjdk-amd64/jre/lib/amd64/libzip.so
7f3084402000-7f3084403000 r--p 00007000 08:02 8146958                    /usr/lib/jvm/java-8-openjdk-amd64/jre/lib/amd64/libzip.so
7f3084403000-7f3084404000 rw-p 00008000 08:02 8146958                    /usr/lib/jvm/java-8-openjdk-amd64/jre/lib/amd64/libzip.so
7f3084404000-7f308440f000 r-xp 00000000 08:02 3150636                    /lib/x86_64-linux-gnu/libnss_files-2.27.so
7f308440f000-7f308460e000 ---p 0000b000 08:02 3150636                    /lib/x86_64-linux-gnu/libnss_files-2.27.so
7f308460e000-7f308460f000 r--p 0000a000 08:02 3150636                    /lib/x86_64-linux-gnu/libnss_files-2.27.so
7f308460f000-7f3084610000 rw-p 0000b000 08:02 3150636                    /lib/x86_64-linux-gnu/libnss_files-2.27.so
7f3084610000-7f3084616000 rw-p 00000000 00:00 0 
7f3084616000-7f308462d000 r-xp 00000000 08:02 3150630                    /lib/x86_64-linux-gnu/libnsl-2.27.so
7f308462d000-7f308482c000 ---p 00017000 08:02 3150630                    /lib/x86_64-linux-gnu/libnsl-2.27.so
7f308482c000-7f308482d000 r--p 00016000 08:02 3150630                    /lib/x86_64-linux-gnu/libnsl-2.27.so
7f308482d000-7f308482e000 rw-p 00017000 08:02 3150630                    /lib/x86_64-linux-gnu/libnsl-2.27.so
7f308482e000-7f3084830000 rw-p 00000000 00:00 0 
7f3084830000-7f308483b000 r-xp 00000000 08:02 3150647                    /lib/x86_64-linux-gnu/libnss_nis-2.27.so
7f308483b000-7f3084a3a000 ---p 0000b000 08:02 3150647                    /lib/x86_64-linux-gnu/libnss_nis-2.27.so
7f3084a3a000-7f3084a3b000 r--p 0000a000 08:02 3150647                    /lib/x86_64-linux-gnu/libnss_nis-2.27.so
7f3084a3b000-7f3084a3c000 rw-p 0000b000 08:02 3150647                    /lib/x86_64-linux-gnu/libnss_nis-2.27.so
7f3084a3c000-7f3084a44000 r-xp 00000000 08:02 3150632                    /lib/x86_64-linux-gnu/libnss_compat-2.27.so
7f3084a44000-7f3084c44000 ---p 00008000 08:02 3150632                    /lib/x86_64-linux-gnu/libnss_compat-2.27.so
7f3084c44000-7f3084c45000 r--p 00008000 08:02 3150632                    /lib/x86_64-linux-gnu/libnss_compat-2.27.so
7f3084c45000-7f3084c46000 rw-p 00009000 08:02 3150632                    /lib/x86_64-linux-gnu/libnss_compat-2.27.so
7f3084c46000-7f3084c72000 r-xp 00000000 08:02 8146939                    /usr/lib/jvm/java-8-openjdk-amd64/jre/lib/amd64/libjava.so
7f3084c72000-7f3084e71000 ---p 0002c000 08:02 8146939                    /usr/lib/jvm/java-8-openjdk-amd64/jre/lib/amd64/libjava.so
7f3084e71000-7f3084e72000 r--p 0002b000 08:02 8146939                    /usr/lib/jvm/java-8-openjdk-amd64/jre/lib/amd64/libjava.so
7f3084e72000-7f3084e74000 rw-p 0002c000 08:02 8146939                    /usr/lib/jvm/java-8-openjdk-amd64/jre/lib/amd64/libjava.so
7f3084e74000-7f3084e84000 r-xp 00000000 08:02 8146957                    /usr/lib/jvm/java-8-openjdk-amd64/jre/lib/amd64/libverify.so
7f3084e84000-7f3085083000 ---p 00010000 08:02 8146957                    /usr/lib/jvm/java-8-openjdk-amd64/jre/lib/amd64/libverify.so
7f3085083000-7f3085085000 r--p 0000f000 08:02 8146957                    /usr/lib/jvm/java-8-openjdk-amd64/jre/lib/amd64/libverify.so
7f3085085000-7f3085086000 rw-p 00011000 08:02 8146957                    /usr/lib/jvm/java-8-openjdk-amd64/jre/lib/amd64/libverify.so
7f3085086000-7f308508d000 r-xp 00000000 08:02 3150687                    /lib/x86_64-linux-gnu/librt-2.27.so
7f308508d000-7f308528c000 ---p 00007000 08:02 3150687                    /lib/x86_64-linux-gnu/librt-2.27.so
7f308528c000-7f308528d000 r--p 00006000 08:02 3150687                    /lib/x86_64-linux-gnu/librt-2.27.so
7f308528d000-7f308528e000 rw-p 00007000 08:02 3150687                    /lib/x86_64-linux-gnu/librt-2.27.so
7f308528e000-7f30852a5000 r-xp 00000000 08:02 3145818                    /lib/x86_64-linux-gnu/libgcc_s.so.1
7f30852a5000-7f30854a4000 ---p 00017000 08:02 3145818                    /lib/x86_64-linux-gnu/libgcc_s.so.1
7f30854a4000-7f30854a5000 r--p 00016000 08:02 3145818                    /lib/x86_64-linux-gnu/libgcc_s.so.1
7f30854a5000-7f30854a6000 rw-p 00017000 08:02 3145818                    /lib/x86_64-linux-gnu/libgcc_s.so.1
7f30854a6000-7f3085643000 r-xp 00000000 08:02 3150609                    /lib/x86_64-linux-gnu/libm-2.27.so
7f3085643000-7f3085842000 ---p 0019d000 08:02 3150609                    /lib/x86_64-linux-gnu/libm-2.27.so
7f3085842000-7f3085843000 r--p 0019c000 08:02 3150609                    /lib/x86_64-linux-gnu/libm-2.27.so
7f3085843000-7f3085844000 rw-p 0019d000 08:02 3150609                    /lib/x86_64-linux-gnu/libm-2.27.so
7f3085844000-7f30859bd000 r-xp 00000000 08:02 8131842                    /usr/lib/x86_64-linux-gnu/libstdc++.so.6.0.25
7f30859bd000-7f3085bbd000 ---p 00179000 08:02 8131842                    /usr/lib/x86_64-linux-gnu/libstdc++.so.6.0.25
7f3085bbd000-7f3085bc7000 r--p 00179000 08:02 8131842                    /usr/lib/x86_64-linux-gnu/libstdc++.so.6.0.25
7f3085bc7000-7f3085bc9000 rw-p 00183000 08:02 8131842                    /usr/lib/x86_64-linux-gnu/libstdc++.so.6.0.25
7f3085bc9000-7f3085bcd000 rw-p 00000000 00:00 0 
7f3085bcd000-7f308686a000 r-xp 00000000 08:02 8146961                    /usr/lib/jvm/java-8-openjdk-amd64/jre/lib/amd64/server/libjvm.so
7f308686a000-7f3086a69000 ---p 00c9d000 08:02 8146961                    /usr/lib/jvm/java-8-openjdk-amd64/jre/lib/amd64/server/libjvm.so
7f3086a69000-7f3086afd000 r--p 00c9c000 08:02 8146961                    /usr/lib/jvm/java-8-openjdk-amd64/jre/lib/amd64/server/libjvm.so
7f3086afd000-7f3086b26000 rw-p 00d30000 08:02 8146961                    /usr/lib/jvm/java-8-openjdk-amd64/jre/lib/amd64/server/libjvm.so
7f3086b26000-7f3086b56000 rw-p 00000000 00:00 0 
7f3086b56000-7f3086b70000 r-xp 00000000 08:02 3150679                    /lib/x86_64-linux-gnu/libpthread-2.27.so
7f3086b70000-7f3086d6f000 ---p 0001a000 08:02 3150679                    /lib/x86_64-linux-gnu/libpthread-2.27.so
7f3086d6f000-7f3086d70000 r--p 00019000 08:02 3150679                    /lib/x86_64-linux-gnu/libpthread-2.27.so
7f3086d70000-7f3086d71000 rw-p 0001a000 08:02 3150679                    /lib/x86_64-linux-gnu/libpthread-2.27.so
7f3086d71000-7f3086d75000 rw-p 00000000 00:00 0 
7f3086d75000-7f3086d78000 r-xp 00000000 08:02 3150569                    /lib/x86_64-linux-gnu/libdl-2.27.so
7f3086d78000-7f3086f77000 ---p 00003000 08:02 3150569                    /lib/x86_64-linux-gnu/libdl-2.27.so
7f3086f77000-7f3086f78000 r--p 00002000 08:02 3150569                    /lib/x86_64-linux-gnu/libdl-2.27.so
7f3086f78000-7f3086f79000 rw-p 00003000 08:02 3150569                    /lib/x86_64-linux-gnu/libdl-2.27.so
7f3086f79000-7f3086f95000 r-xp 00000000 08:02 3150718                    /lib/x86_64-linux-gnu/libz.so.1.2.11
7f3086f95000-7f3087194000 ---p 0001c000 08:02 3150718                    /lib/x86_64-linux-gnu/libz.so.1.2.11
7f3087194000-7f3087195000 r--p 0001b000 08:02 3150718                    /lib/x86_64-linux-gnu/libz.so.1.2.11
7f3087195000-7f3087196000 rw-p 0001c000 08:02 3150718                    /lib/x86_64-linux-gnu/libz.so.1.2.11
7f3087196000-7f308737d000 r-xp 00000000 08:02 3150546                    /lib/x86_64-linux-gnu/libc-2.27.so
7f308737d000-7f308757d000 ---p 001e7000 08:02 3150546                    /lib/x86_64-linux-gnu/libc-2.27.so
7f308757d000-7f3087581000 r--p 001e7000 08:02 3150546                    /lib/x86_64-linux-gnu/libc-2.27.so
7f3087581000-7f3087583000 rw-p 001eb000 08:02 3150546                    /lib/x86_64-linux-gnu/libc-2.27.so
7f3087583000-7f3087587000 rw-p 00000000 00:00 0 
7f3087587000-7f3087595000 r-xp 00000000 08:02 8146925                    /usr/lib/jvm/java-8-openjdk-amd64/jre/lib/amd64/jli/libjli.so
7f3087595000-7f3087794000 ---p 0000e000 08:02 8146925                    /usr/lib/jvm/java-8-openjdk-amd64/jre/lib/amd64/jli/libjli.so
7f3087794000-7f3087795000 r--p 0000d000 08:02 8146925                    /usr/lib/jvm/java-8-openjdk-amd64/jre/lib/amd64/jli/libjli.so
7f3087795000-7f3087796000 rw-p 0000e000 08:02 8146925                    /usr/lib/jvm/java-8-openjdk-amd64/jre/lib/amd64/jli/libjli.so
7f3087796000-7f30877bd000 r-xp 00000000 08:02 3150518                    /lib/x86_64-linux-gnu/ld-2.27.so
7f308789b000-7f308789c000 ---p 00000000 00:00 0 
7f308789c000-7f308789f000 ---p 00000000 00:00 0 
7f308789f000-7f308799e000 rw-p 00000000 00:00 0 
7f30879b1000-7f30879b9000 rw-s 00000000 08:02 13512430                   /tmp/hsperfdata_zenika/31652
7f30879b9000-7f30879ba000 rw-p 00000000 00:00 0 
7f30879ba000-7f30879bb000 r--p 00000000 00:00 0 
7f30879bb000-7f30879bd000 rw-p 00000000 00:00 0 
7f30879bd000-7f30879be000 r--p 00027000 08:02 3150518                    /lib/x86_64-linux-gnu/ld-2.27.so
7f30879be000-7f30879bf000 rw-p 00028000 08:02 3150518                    /lib/x86_64-linux-gnu/ld-2.27.so
7f30879bf000-7f30879c0000 rw-p 00000000 00:00 0 
7ffe6a8c9000-7ffe6a8eb000 rw-p 00000000 00:00 0                          [stack]
7ffe6a9df000-7ffe6a9e2000 r--p 00000000 00:00 0                          [vvar]
7ffe6a9e2000-7ffe6a9e4000 r-xp 00000000 00:00 0                          [vdso]
ffffffffff600000-ffffffffff601000 r-xp 00000000 00:00 0                  [vsyscall]

VM Arguments:
jvm_args: -Xms1024m -Xmx1024m -XX:ReservedCodeCacheSize=128m -XX:MaxMetaspaceSize=256m 
java_command: /usr/share/sbt/bin/sbt-launch.jar assembly
java_class_path (initial): /usr/share/sbt/bin/sbt-launch.jar
Launcher Type: SUN_STANDARD

Environment Variables:
JAVA_HOME=/usr/lib/jvm/java-8-openjdk-amd64/
PATH=/home/zenika/google-cloud-sdk/bin:/home/zenika/.sdkman/candidates/scala/current/bin:/home/zenika/.cargo/bin:/usr/local/go/bin:/home/zenika/bin:/home/zenika/.cargo/bin:/home/zenika/.local/bin:/home/zenika/bin:/home/zenika/.cargo/bin:/usr/local/go/bin:/usr/local/sbin:/usr/local/bin:/usr/sbin:/usr/bin:/sbin:/bin:/usr/games:/usr/local/games:/usr/lib/jvm/java-8-openjdk-amd64/bin:/usr/local/go/bin:/snap/bin:/usr/local/go/bin
USERNAME=zenika
SHELL=/bin/bash
DISPLAY=:0

Signal Handlers:
SIGSEGV: [libjvm.so+0xab5000], sa_mask[0]=11111111011111111101111111111110, sa_flags=SA_RESTART|SA_SIGINFO
SIGBUS: [libjvm.so+0xab5000], sa_mask[0]=11111111011111111101111111111110, sa_flags=SA_RESTART|SA_SIGINFO
SIGFPE: [libjvm.so+0x8ea970], sa_mask[0]=11111111011111111101111111111110, sa_flags=SA_RESTART|SA_SIGINFO
SIGPIPE: [libjvm.so+0x8ea970], sa_mask[0]=11111111011111111101111111111110, sa_flags=SA_RESTART|SA_SIGINFO
SIGXFSZ: [libjvm.so+0x8ea970], sa_mask[0]=11111111011111111101111111111110, sa_flags=SA_RESTART|SA_SIGINFO
SIGILL: [libjvm.so+0x8ea970], sa_mask[0]=11111111011111111101111111111110, sa_flags=SA_RESTART|SA_SIGINFO
SIGUSR1: SIG_DFL, sa_mask[0]=00000000000000000000000000000000, sa_flags=none
SIGUSR2: [libjvm.so+0x8ea820], sa_mask[0]=00000000000000000000000000000000, sa_flags=SA_RESTART|SA_SIGINFO
SIGHUP: SIG_DFL, sa_mask[0]=00000000000000000000000000000000, sa_flags=none
SIGINT: SIG_DFL, sa_mask[0]=00000000000000000000000000000000, sa_flags=none
SIGTERM: SIG_DFL, sa_mask[0]=00000000000000000000000000000000, sa_flags=none
SIGQUIT: SIG_DFL, sa_mask[0]=00000000000000000000000000000000, sa_flags=none


---------------  S Y S T E M  ---------------

OS:DISTRIB_ID=Ubuntu
DISTRIB_RELEASE=18.04
DISTRIB_CODENAME=bionic
DISTRIB_DESCRIPTION="Ubuntu 18.04.2 LTS"

uname:Linux 4.18.0-25-generic #26~18.04.1-Ubuntu SMP Thu Jun 27 07:28:31 UTC 2019 x86_64
libc:glibc 2.27 NPTL 2.27 
rlimit: STACK 8192k, CORE 0k, NPROC 30892, NOFILE 1048576, AS infinity
load average:1.45 1.75 1.91

/proc/meminfo:
MemTotal:        8037452 kB
MemFree:          258348 kB
MemAvailable:     417684 kB
Buffers:           43076 kB
Cached:           770704 kB
SwapCached:         9416 kB
Active:          6346344 kB
Inactive:        1071684 kB
Active(anon):    6118588 kB
Inactive(anon):   954368 kB
Active(file):     227756 kB
Inactive(file):   117316 kB
Unevictable:          20 kB
Mlocked:              20 kB
SwapTotal:       2097148 kB
SwapFree:          35368 kB
Dirty:              5172 kB
Writeback:             0 kB
AnonPages:       6595884 kB
Mapped:           501448 kB
Shmem:            484800 kB
Slab:             184300 kB
SReclaimable:      66704 kB
SUnreclaim:       117596 kB
KernelStack:       18136 kB
PageTables:        79244 kB
NFS_Unstable:          0 kB
Bounce:                0 kB
WritebackTmp:          0 kB
CommitLimit:     6115872 kB
Committed_AS:   16330996 kB
VmallocTotal:   34359738367 kB
VmallocUsed:           0 kB
VmallocChunk:          0 kB
HardwareCorrupted:     0 kB
AnonHugePages:         0 kB
ShmemHugePages:        0 kB
ShmemPmdMapped:        0 kB
CmaTotal:              0 kB
CmaFree:               0 kB
HugePages_Total:       0
HugePages_Free:        0
HugePages_Rsvd:        0
HugePages_Surp:        0
Hugepagesize:       2048 kB
Hugetlb:               0 kB
DirectMap4k:      265004 kB
DirectMap2M:     6944768 kB
DirectMap1G:     2097152 kB

container (cgroup) information:
container_type: cgroupv1
cpu_cpuset_cpus: 0-3
cpu_memory_nodes: 0
active_processor_count: 4
cpu_quota: -1
cpu_period: 100000
cpu_shares: -1
memory_limit_in_bytes: -1
memory_and_swap_limit_in_bytes: -2
memory_soft_limit_in_bytes: -1
memory_usage_in_bytes: 7590608896
memory_max_usage_in_bytes: 7850536960


CPU:total 4 (initial active 4) (2 cores per cpu, 2 threads per core) family 6 model 61 stepping 4, cmov, cx8, fxsr, mmx, sse, sse2, sse3, ssse3, sse4.1, sse4.2, popcnt, avx, avx2, aes, clmul, erms, rtm, 3dnowpref, lzcnt, ht, tsc, tscinvbit, bmi1, bmi2, adx

/proc/cpuinfo:
processor	: 0
vendor_id	: GenuineIntel
cpu family	: 6
model		: 61
model name	: Intel(R) Core(TM) i5-5300U CPU @ 2.30GHz
stepping	: 4
microcode	: 0x2d
cpu MHz		: 2706.503
cache size	: 3072 KB
physical id	: 0
siblings	: 4
core id		: 0
cpu cores	: 2
apicid		: 0
initial apicid	: 0
fpu		: yes
fpu_exception	: yes
cpuid level	: 20
wp		: yes
flags		: fpu vme de pse tsc msr pae mce cx8 apic sep mtrr pge mca cmov pat pse36 clflush dts acpi mmx fxsr sse sse2 ss ht tm pbe syscall nx pdpe1gb rdtscp lm constant_tsc arch_perfmon pebs bts rep_good nopl xtopology nonstop_tsc cpuid aperfmperf pni pclmulqdq dtes64 monitor ds_cpl vmx smx est tm2 ssse3 sdbg fma cx16 xtpr pdcm pcid sse4_1 sse4_2 x2apic movbe popcnt tsc_deadline_timer aes xsave avx f16c rdrand lahf_lm abm 3dnowprefetch cpuid_fault epb invpcid_single pti ssbd ibrs ibpb stibp tpr_shadow vnmi flexpriority ept vpid fsgsbase tsc_adjust bmi1 hle avx2 smep bmi2 erms invpcid rtm rdseed adx smap intel_pt xsaveopt dtherm ida arat pln pts md_clear flush_l1d
bugs		: cpu_meltdown spectre_v1 spectre_v2 spec_store_bypass l1tf mds
bogomips	: 4589.38
clflush size	: 64
cache_alignment	: 64
address sizes	: 39 bits physical, 48 bits virtual
power management:

processor	: 1
vendor_id	: GenuineIntel
cpu family	: 6
model		: 61
model name	: Intel(R) Core(TM) i5-5300U CPU @ 2.30GHz
stepping	: 4
microcode	: 0x2d
cpu MHz		: 2693.770
cache size	: 3072 KB
physical id	: 0
siblings	: 4
core id		: 1
cpu cores	: 2
apicid		: 2
initial apicid	: 2
fpu		: yes
fpu_exception	: yes
cpuid level	: 20
wp		: yes
flags		: fpu vme de pse tsc msr pae mce cx8 apic sep mtrr pge mca cmov pat pse36 clflush dts acpi mmx fxsr sse sse2 ss ht tm pbe syscall nx pdpe1gb rdtscp lm constant_tsc arch_perfmon pebs bts rep_good nopl xtopology nonstop_tsc cpuid aperfmperf pni pclmulqdq dtes64 monitor ds_cpl vmx smx est tm2 ssse3 sdbg fma cx16 xtpr pdcm pcid sse4_1 sse4_2 x2apic movbe popcnt tsc_deadline_timer aes xsave avx f16c rdrand lahf_lm abm 3dnowprefetch cpuid_fault epb invpcid_single pti ssbd ibrs ibpb stibp tpr_shadow vnmi flexpriority ept vpid fsgsbase tsc_adjust bmi1 hle avx2 smep bmi2 erms invpcid rtm rdseed adx smap intel_pt xsaveopt dtherm ida arat pln pts md_clear flush_l1d
bugs		: cpu_meltdown spectre_v1 spectre_v2 spec_store_bypass l1tf mds
bogomips	: 4589.38
clflush size	: 64
cache_alignment	: 64
address sizes	: 39 bits physical, 48 bits virtual
power management:

processor	: 2
vendor_id	: GenuineIntel
cpu family	: 6
model		: 61
model name	: Intel(R) Core(TM) i5-5300U CPU @ 2.30GHz
stepping	: 4
microcode	: 0x2d
cpu MHz		: 2697.616
cache size	: 3072 KB
physical id	: 0
siblings	: 4
core id		: 0
cpu cores	: 2
apicid		: 1
initial apicid	: 1
fpu		: yes
fpu_exception	: yes
cpuid level	: 20
wp		: yes
flags		: fpu vme de pse tsc msr pae mce cx8 apic sep mtrr pge mca cmov pat pse36 clflush dts acpi mmx fxsr sse sse2 ss ht tm pbe syscall nx pdpe1gb rdtscp lm constant_tsc arch_perfmon pebs bts rep_good nopl xtopology nonstop_tsc cpuid aperfmperf pni pclmulqdq dtes64 monitor ds_cpl vmx smx est tm2 ssse3 sdbg fma cx16 xtpr pdcm pcid sse4_1 sse4_2 x2apic movbe popcnt tsc_deadline_timer aes xsave avx f16c rdrand lahf_lm abm 3dnowprefetch cpuid_fault epb invpcid_single pti ssbd ibrs ibpb stibp tpr_shadow vnmi flexpriority ept vpid fsgsbase tsc_adjust bmi1 hle avx2 smep bmi2 erms invpcid rtm rdseed adx smap intel_pt xsaveopt dtherm ida arat pln pts md_clear flush_l1d
bugs		: cpu_meltdown spectre_v1 spectre_v2 spec_store_bypass l1tf mds
bogomips	: 4589.38
clflush size	: 64
cache_alignment	: 64
address sizes	: 39 bits physical, 48 bits virtual
power management:

processor	: 3
vendor_id	: GenuineIntel
cpu family	: 6
model		: 61
model name	: Intel(R) Core(TM) i5-5300U CPU @ 2.30GHz
stepping	: 4
microcode	: 0x2d
cpu MHz		: 2693.772
cache size	: 3072 KB
physical id	: 0
siblings	: 4
core id		: 1
cpu cores	: 2
apicid		: 3
initial apicid	: 3
fpu		: yes
fpu_exception	: yes
cpuid level	: 20
wp		: yes
flags		: fpu vme de pse tsc msr pae mce cx8 apic sep mtrr pge mca cmov pat pse36 clflush dts acpi mmx fxsr sse sse2 ss ht tm pbe syscall nx pdpe1gb rdtscp lm constant_tsc arch_perfmon pebs bts rep_good nopl xtopology nonstop_tsc cpuid aperfmperf pni pclmulqdq dtes64 monitor ds_cpl vmx smx est tm2 ssse3 sdbg fma cx16 xtpr pdcm pcid sse4_1 sse4_2 x2apic movbe popcnt tsc_deadline_timer aes xsave avx f16c rdrand lahf_lm abm 3dnowprefetch cpuid_fault epb invpcid_single pti ssbd ibrs ibpb stibp tpr_shadow vnmi flexpriority ept vpid fsgsbase tsc_adjust bmi1 hle avx2 smep bmi2 erms invpcid rtm rdseed adx smap intel_pt xsaveopt dtherm ida arat pln pts md_clear flush_l1d
bugs		: cpu_meltdown spectre_v1 spectre_v2 spec_store_bypass l1tf mds
bogomips	: 4589.38
clflush size	: 64
cache_alignment	: 64
address sizes	: 39 bits physical, 48 bits virtual
power management:



Memory: 4k page, physical 8037452k(257876k free), swap 2097148k(35368k free)

vm_info: OpenJDK 64-Bit Server VM (25.212-b03) for linux-amd64 JRE (1.8.0_212-8u212-b03-0ubuntu1.18.04.1-b03), built on Apr 26 2019 01:04:36 by "buildd" with gcc 7.3.0

time: Mon Jul 29 15:59:05 2019
timezone: CEST
elapsed time: 0 seconds (0d 0h 0m 0s)

